R Workshop Day 1: Data wrangling
…
We use `arrange()` to changes the order of our data.

--

.pull-left[

```r
df_csv %>% select(ID, Dx, Sex, MMSE) %>% 
  filter(Dx == "CONTROL") %>% 
  arrange(desc(MMSE))
```

```
# # A tibble: 42 x 4
#       ID Dx      Sex     MMSE
#    <dbl> <chr>   <chr>  <dbl>
#  1    20 CONTROL Male      30
#  2    51 CONTROL Female    30
#  3    60 CONTROL Female    30
#  4    98 CONTROL Female    30
#  5   101 CONTROL Female    30
#  6   197 CONTROL Male      30
#  7    17 CONTROL Female    29
#  8    19 CONTROL Female    29
#  9    38 CONTROL Male      29
# 10    48 CONTROL Female    29
# # ... with 32 more rows
```
…
The job of `mutate()` is to add new columns that are functions of existing columns.

--

.pull-left[

```r
df_csv %>% filter(Dx == "CONTROL") %>% 
  select(ID, q1:q6) %>% 
  mutate(q_total = q1 + q2 + q3 + q4 + q5 + q6)
```

```
# # A tibble: 42 x 8
#       ID    q1    q2    q3    q4    q5    q6 q_total
#    <dbl> <dbl> <dbl> <dbl> <dbl> <dbl> <dbl>   <dbl>
#  1    16     3     2     1     4     1     3      14
#  2    17     2     2     2     3     5     2      16
#  3    19     4     5     5     2     1     2      19
#  4    20     4     1     5     2     3     2      17
#  5    21     3     1     3     5     1     5      18
#  6    22     3     2     2     3     1     3      14
#  7    23     3     5     2     2     4     3      19
#  8    24     4     2     4     1     4     5      20
#  9    25     4     4     5     1     3     5      22
# 10    37     1     2     2     3     4     2      14
# # ... with 32 more rows
```
…
The job of `rename()` is to add rename existing columns.

--

.pull-left[

```r
df_csv %>% filter(Dx == "CONTROL") %>% 
  select(ID, q1:q6) %>% 
  rename(WB_1 = q1, 
         WN_2 = q2)
```

```
# # A tibble: 42 x 7
#       ID  WB_1  WN_2    q3    q4    q5    q6
#    <dbl> <dbl> <dbl> <dbl> <dbl> <dbl> <dbl>
#  1    16     3     2     1     4     1     3
#  2    17     2     2     2     3     5     2
#  3    19     4     5     5     2     1     2
#  4    20     4     1     5     2     3     2
#  5    21     3     1     3     5     1     5
#  6    22     3     2     2     3     1     3
#  7    23     3     5     2     2     4     3
#  8    24     4     2     4     1     4     5
#  9    25     4     4     5     1     3     5
# 10    37     1     2     2     3     4     2
# # ... with 32 more rows
```
…
